1;Ivan;Rodriguez;19/06/1984
2;Persona2;Apellido2;19/01/1984
3;Persona3;Apellido3;25/12/1952
4;Persona4;Apellido4;03/03/1963
5;Persona5;Apellido5;07/07/1982
6;Persona6;Apellido6;21/08/1975
7;Persona7;Apellido7;12/06/2000
8;persona8;apellido8
9;persona9;apellido9
10;gnyeee;dsdsdf
